Flu Shot Learning
…
predictions <- glm_fit %>%
  predict(
    new_data = test_data,
    type = "prob")

predictions

## # A tibble: 6,676 x 2
##    .pred_0 .pred_1
##      <dbl>   <dbl>
##  1   0.604  0.396 
##  2   0.849  0.151 
##  3   0.931  0.0685
##  4   0.751  0.249 
##  5   0.780  0.220 
##  6   0.619  0.381 
##  7   0.895  0.105 
##  8   0.895  0.105 
##  9  NA     NA     
## 10   0.895  0.105 
## #  with 6,666 more rows

test_data_predictions <- bind_cols(predictions, test_data)
test_data_predictions

## # A tibble: 6,676 x 40
##    .pred_0 .pred_1 respondent_id h1n1_vaccine seasonal_vaccine h1n1_concern
##      <dbl>   <dbl>         <int> <fct>        <fct>            <fct>       
##  1   0.604  0.396             23 0            0                1           
##  2   0.849  0.151             35 1            1                1           
##  3   0.931  0.0685            38 0            0                1           
##  4   0.751  0.249             41 0            0                0           
##  5   0.780  0.220             42 1            1                2           
##  6   0.619  0.381             44 1            1                2           
##  7   0.895  0.105             51 0            0                2           
##  8   0.895  0.105             57 0            1                2           
##  9  NA     NA                 58 1            1                3           
## 10   0.895  0.105             59 0            0                2           
## #  with 6,666 more rows, and 34 more variables: h1n1_knowledge <fct>,
## #   behavioral_antiviral_meds <fct>, behavioral_avoidance <fct>,
## #   behavioral_face_mask <fct>, behavioral_wash_hands <fct>,
## #   behavioral_large_gatherings <fct>, behavioral_outside_home <fct>,
## #   behavioral_touch_face <fct>, doctor_recc_h1n1 <fct>,
## #   doctor_recc_seasonal <fct>, chronic_med_condition <fct>,
## #   child_under_6_months <fct>, health_worker <fct>, health_insurance <fct>,
## #   opinion_h1n1_vacc_effective <fct>, opinion_h1n1_risk <fct>,
## #   opinion_h1n1_sick_from_vacc <fct>, opinion_seas_vacc_effective <fct>,
…
